id,name,model_id:id,group_id:id,perm_read,perm_write,perm_create,perm_unlink
access_sale_member_user,sale_event.sales_member_user,model_sale_event_sales_member,sale_event_user,1,0,0,0
access_sale_member_manager,sale_event.sales_member_manager,model_sale_event_sales_member,sale_event_manager,1,1,1,1
access_sale_member_all_viewer,sale_event.sale_member_all_viewer,model_sale_event_sales_member,sale_event_all_viewer,1,0,0,0
access_sale_member_all_executive,sale_event.sale_member_executive,model_sale_event_sales_member,sale_event_executive,1,1,1,1
access_sale_event_user,sale_event.sale_event_user,model_sale_event_sale_event,sale_event_user,1,0,0,0
access_sale_event_manager,sale_event.sale_event_manager,model_sale_event_sale_event,sale_event_manager,1,1,1,1
access_sale_event_all_viewer,sale_event.sale_event_all_viewer,model_sale_event_sale_event,sale_event_all_viewer,1,0,0,0
access_sale_event_all_executive,sale_event.sale_event_executive,model_sale_event_sale_event,sale_event_executive,1,1,1,1
